%YAML 1.1
%TAG !u! tag:unity3d.com,2011:
--- !u!74 &7400000
AnimationClip:
  m_ObjectHideFlags: 0
  m_CorrespondingSourceObject: {fileID: 0}
  m_PrefabInstance: {fileID: 0}
  m_PrefabAsset: {fileID: 0}
  m_Name: Walk
  serializedVersion: 6
  m_Legacy: 0
  m_Compressed: 0
  m_UseHighQualityCurve: 1
  m_RotationCurves: []
  m_CompressedRotationCurves: []
  m_EulerCurves: []
  m_PositionCurves: []
  m_ScaleCurves: []
  m_FloatCurves: []
  m_PPtrCurves:
  - curve:
    - time: 0
      value: {fileID: -8644889942409211090, guid: fd27ed477f0c446459b06bdc1d8dbb81,
        type: 3}
    - time: 0.016666668
      value: {fileID: 7180195895192826059, guid: fd27ed477f0c446459b06bdc1d8dbb81,
        type: 3}
    - time: 0.033333335
      value: {fileID: -6622732464455020030, guid: fd27ed477f0c446459b06bdc1d8dbb81,
        type: 3}
    - time: 0.05
      value: {fileID: 8222604357750818144, guid: fd27ed477f0c446459b06bdc1d8dbb81,
        type: 3}
    - time: 0.06666667
      value: {fileID: -4004527290698857321, guid: fd27ed477f0c446459b06bdc1d8dbb81,
        type: 3}
    - time: 0.083333336
      value: {fileID: -6033885931137250393, guid: fd27ed477f0c446459b06bdc1d8dbb81,
        type: 3}
    - time: 0.1
      value: {fileID: 5923240033370958429, guid: fd27ed477f0c446459b06bdc1d8dbb81,
        type: 3}
    - time: 0.11666667
      value: {fileID: 2451002373052964623, guid: fd27ed477f0c446459b06bdc1d8dbb81,
        type: 3}
    - time: 0.13333334
      value: {fileID: 8108322230764480391, guid: fd27ed477f0c446459b06bdc1d8dbb81,
        type: 3}
    - time: 0.15
      value: {fileID: -7156045342858959276, guid: fd27ed477f0c446459b06bdc1d8dbb81,
        type: 3}
    - time: 0.16666667
      value: {fileID: 3719195470339505224, guid: fd27ed477f0c446459b06bdc1d8dbb81,
        type: 3}
    - time: 0.18333334
      value: {fileID: 1731647788988222269, guid: fd27ed477f0c446459b06bdc1d8dbb81,
        type: 3}
    - time: 0.2
      value: {fileID: -1025951174003558675, guid: fd27ed477f0c446459b06bdc1d8dbb81,
        type: 3}
    - time: 0.21666667
      value: {fileID: 3193039239326454919, guid: fd27ed477f0c446459b06bdc1d8dbb81,
        type: 3}
    - time: 0.23333333
      value: {fileID: -3058229962641959686, guid: fd27ed477f0c446459b06bdc1d8dbb81,
        type: 3}
    - time: 0.25
      value: {fileID: 51363136116004566, guid: fd27ed477f0c446459b06bdc1d8dbb81, type: 3}
    - time: 0.26666668
      value: {fileID: 2329116044165841025, guid: fd27ed477f0c446459b06bdc1d8dbb81,
        type: 3}
    - time: 0.28333333
      value: {fileID: -7583837556227218809, guid: fd27ed477f0c446459b06bdc1d8dbb81,
        type: 3}
    - time: 0.3
      value: {fileID: -1333159919349879821, guid: fd27ed477f0c446459b06bdc1d8dbb81,
        type: 3}
    - time: 0.31666666
      value: {fileID: 1650403901147311243, guid: fd27ed477f0c446459b06bdc1d8dbb81,
        type: 3}
    attribute: m_Sprite
    path: 
    classID: 212
    script: {fileID: 0}
  m_SampleRate: 60
  m_WrapMode: 0
  m_Bounds:
    m_Center: {x: 0, y: 0, z: 0}
    m_Extent: {x: 0, y: 0, z: 0}
  m_ClipBindingConstant:
    genericBindings:
    - serializedVersion: 2
      path: 0
      attribute: 0
      script: {fileID: 0}
      typeID: 212
      customType: 23
      isPPtrCurve: 1
    pptrCurveMapping:
    - {fileID: -8644889942409211090, guid: fd27ed477f0c446459b06bdc1d8dbb81, type: 3}
    - {fileID: 7180195895192826059, guid: fd27ed477f0c446459b06bdc1d8dbb81, type: 3}
    - {fileID: -6622732464455020030, guid: fd27ed477f0c446459b06bdc1d8dbb81, type: 3}
    - {fileID: 8222604357750818144, guid: fd27ed477f0c446459b06bdc1d8dbb81, type: 3}
    - {fileID: -4004527290698857321, guid: fd27ed477f0c446459b06bdc1d8dbb81, type: 3}
    - {fileID: -6033885931137250393, guid: fd27ed477f0c446459b06bdc1d8dbb81, type: 3}
    - {fileID: 5923240033370958429, guid: fd27ed477f0c446459b06bdc1d8dbb81, type: 3}
    - {fileID: 2451002373052964623, guid: fd27ed477f0c446459b06bdc1d8dbb81, type: 3}
    - {fileID: 8108322230764480391, guid: fd27ed477f0c446459b06bdc1d8dbb81, type: 3}
    - {fileID: -7156045342858959276, guid: fd27ed477f0c446459b06bdc1d8dbb81, type: 3}
    - {fileID: 3719195470339505224, guid: fd27ed477f0c446459b06bdc1d8dbb81, type: 3}
    - {fileID: 1731647788988222269, guid: fd27ed477f0c446459b06bdc1d8dbb81, type: 3}
    - {fileID: -1025951174003558675, guid: fd27ed477f0c446459b06bdc1d8dbb81, type: 3}
    - {fileID: 3193039239326454919, guid: fd27ed477f0c446459b06bdc1d8dbb81, type: 3}
    - {fileID: -3058229962641959686, guid: fd27ed477f0c446459b06bdc1d8dbb81, type: 3}
    - {fileID: 51363136116004566, guid: fd27ed477f0c446459b06bdc1d8dbb81, type: 3}
    - {fileID: 2329116044165841025, guid: fd27ed477f0c446459b06bdc1d8dbb81, type: 3}
    - {fileID: -7583837556227218809, guid: fd27ed477f0c446459b06bdc1d8dbb81, type: 3}
    - {fileID: -1333159919349879821, guid: fd27ed477f0c446459b06bdc1d8dbb81, type: 3}
    - {fileID: 1650403901147311243, guid: fd27ed477f0c446459b06bdc1d8dbb81, type: 3}
  m_AnimationClipSettings:
    serializedVersion: 2
    m_AdditiveReferencePoseClip: {fileID: 0}
    m_AdditiveReferencePoseTime: 0
    m_StartTime: 0
    m_StopTime: 0.33333334
    m_OrientationOffsetY: 0
    m_Level: 0
    m_CycleOffset: 0
    m_HasAdditiveReferencePose: 0
    m_LoopTime: 1
    m_LoopBlend: 0
    m_LoopBlendOrientation: 0
    m_LoopBlendPositionY: 0
    m_LoopBlendPositionXZ: 0
    m_KeepOriginalOrientation: 0
    m_KeepOriginalPositionY: 1
    m_KeepOriginalPositionXZ: 0
    m_HeightFromFeet: 0
    m_Mirror: 0
  m_EditorCurves: []
  m_EulerEditorCurves: []
  m_HasGenericRootTransform: 0
  m_HasMotionFloatCurves: 0
  m_Events: []
